Event,Sex,Name,State,BodyweightKg,WeightClassKg,Division,Best3SquatKg,Best3BenchKg,Best3DeadliftKg,TotalKg,Equipment,Place
B,M,Tarn Rai,BC,,90,Sub-Juniors,,45,,45,Single-ply,2
B,M,Sumit Randhawa,BC,,90,Sub-Juniors,,85,,85,Single-ply,1
B,M,Tyler Pocsik,AB,,82.5,Sub-Juniors,,77.5,,77.5,Single-ply,1
B,M,Rémy Drapeau,QU,,75,Sub-Juniors,,115,,115,Single-ply,2
B,M,Onkar Sandhu,BC,,75,Sub-Juniors,,80,,80,Single-ply,3
B,M,Dustin Schissler,BC,,75,Sub-Juniors,,130,,130,Single-ply,1
B,M,Simardeep Virk,BC,,67.5,Sub-Juniors,,100,,100,Single-ply,1
B,F,Rhaea Stinn,SK,,67.5,Sub-Juniors,,97.5,,97.5,Single-ply,1
B,M,Harvey Sahota,BC,,67.5,Sub-Juniors,,40,,40,Single-ply,2
B,M,Damanjit Kochar,BC,,52,Sub-Juniors,,37.5,,37.5,Single-ply,1
B,M,Arshdeep Dhaliwal,BC,,52,Sub-Juniors,,25,,25,Single-ply,2
B,M,Prabhraj Hunjan,BC,,140+,Sub-Juniors,,62.5,,62.5,Single-ply,1
B,M,Richard Singh,,,125,Sub-Juniors,,147.5,,147.5,Single-ply,1
B,M,Jason Rai,BC,,110,Sub-Juniors,,72.5,,72.5,Single-ply,1
B,M,Randall Truscott,,,100,Sub-Juniors,,95,,95,Single-ply,1
B,M,John Greenidge,ON,,100,Sub-Juniors,,75,,75,Single-ply,2
B,M,Mangal Singh,,,90,Open,,170,,170,Single-ply,1
B,M,Joel Holmes,,,90,Open,,142.5,,142.5,Single-ply,2
B,M,Barry Antoniow,ON,,82.5,Open,,185,,185,Single-ply,1
B,F,Melinda Fowler,NL,,75,Open,,65,,65,Single-ply,1
B,F,Kim Dennis,BC,,67.5,Open,,92.5,,92.5,Single-ply,1
B,M,Jean-Sébastien Rhéaume,QU,,67.5,Open,,165,,165,Single-ply,1
B,F,Linsay Sunderland,AB,,56,Open,,67.5,,67.5,Single-ply,1
B,F,Lee-Ann Dalling,NS,,52,Open,,87.5,,87.5,Single-ply,1
B,M,Warren Orr,,,140+,Open,,185,,185,Single-ply,3
B,M,Ryan Fowler,,,140+,Open,,195,,195,Single-ply,2
B,M,Clifford Samms,,,140+,Open,,247.5,,247.5,Single-ply,1
B,M,John Giffen,,,110,Open,,250,,250,Single-ply,1
B,M,Simon Swithenbank,,,100,Open,,160,,160,Single-ply,2
B,M,Ed Dufour,,,100,Open,,175,,175,Single-ply,1
B,F,Denise Ouellet,QU,,75,Masters 3,,70,,70,Single-ply,1
B,M,Laurie Greenidge,,,90,Masters 2,,140,,140,Single-ply,1
B,F,Susan Haywood,MB,,82.5,Masters 2,,72.5,,72.5,Single-ply,1
B,M,Jerry Marentette,ON,,82.5,Masters 2,,175,,175,Single-ply,1
B,M,Herbert Greenidge,ON,,82.5,Masters 2,,175,,175,Single-ply,2
B,F,Nancy Carpenter,BC,,75,Masters 2,,70,,70,Single-ply,2
B,F,Jane Smith,BC,,75,Masters 2,,75,,75,Single-ply,1
B,F,Janet Warne,QU,,60,Masters 2,,70,,70,Single-ply,1
B,M,Mike Armstrong,,,140+,Masters 2,,227.5,,227.5,Single-ply,1
B,M,Miroslav Koprnicky,,,100,Masters 2,,160,,160,Single-ply,1
B,M,Marc Vézina,,,90,Masters 1,,142.5,,142.5,Single-ply,1
B,M,Vince Courville,BC,,82.5,Masters 1,,182.5,,182.5,Single-ply,1
B,M,Andrew Bryant,BC,,82.5,Masters 1,,145,,145,Single-ply,2
B,F,Rosalin Hanna,BC,,67.5,Masters 1,,65,,65,Single-ply,1
B,M,Réjean Talon,QU,,67.5,Masters 1,,155,,155,Single-ply,1
B,F,Lana Bonneville,BC,,52,Masters 1,,65,,65,Single-ply,1
B,M,Shawn O'Halloran,,,140+,Masters 1,,290,,290,Single-ply,1
B,M,John James,,,125,Masters 1,,150,,150,Single-ply,1
B,M,Bill Nickoli,,,125,Masters 1,,120,,120,Single-ply,2
B,M,Daniel Royer,,,110,Masters 1,,192.5,,192.5,Single-ply,1
B,M,Philippe Eliassaint,,,100,Masters 1,,177.5,,177.5,Single-ply,1
B,M,Paul Gidney,,,100,Masters 1,,175,,175,Single-ply,2
B,M,Matt Walker,,,100,Masters 1,,165,,165,Single-ply,3
B,F,Emily Vannieuwenhuizen,BC,,90,Juniors,,60,,60,Single-ply,1
B,F,Raelene Marion,AB,,82.5,Juniors,,130,,130,Single-ply,1
B,M,Chris Carpenter #2,ON,,82.5,Juniors,,187.5,,187.5,Single-ply,1
B,M,Drew Irwin,ON,,75,Juniors,,155,,155,Single-ply,1
B,M,Slav Bienko,BC,,67.5,Juniors,,110,,110,Single-ply,1
B,F,Ebony Rutko,BC,,60,Juniors,,87.5,,87.5,Single-ply,1
B,M,Jason Byrne #1,,,125,Juniors,,230,,230,Single-ply,1
B,M,John MacDonald,PE,,110,Juniors,,217.5,,217.5,Single-ply,1
B,M,Steven Halladay,ON,,100,Juniors,,170,,170,Single-ply,2
B,M,Nathan Higginson,AB,,100,Juniors,,195,,195,Single-ply,1
