Name,BirthYear,WeightClassKg,BodyweightKg,Country,Best3SquatKg,Best3BenchKg,Best3DeadliftKg,TotalKg,Sex,Division,Event,Equipment,Place
John Clay,1964,52,50.7,UK,180,105,195,480,M,Open,SBD,Single-ply,1
Mats Forsberg,1958,52,51.9,Sweden,165,97.5,165,427.5,M,Open,SBD,Single-ply,2
Helgi Jónsson #2,1971,52,52,Iceland,115,72.5,130,317.5,M,Open,SBD,Single-ply,3
Gary Simes,1963,56,55.7,UK,212.5,117.5,212.5,542.5,M,Open,SBD,Single-ply,1
Klemen Jaschinski,1963,56,55.1,Germany,182.5,122.5,197.5,502.5,M,Open,SBD,Single-ply,2
Asko Sirviö,1968,56,55.9,Finland,172.5,127.5,197.5,497.5,M,Open,SBD,Single-ply,3
Wim Elyn,1963,56,54.9,Belgium,185,100,205,490,M,Open,SBD,Single-ply,4
Jan Christiansen,1968,56,55.4,Norway,175,117.5,165,457.5,M,Open,SBD,Single-ply,5
Johanne Eiriksson,1972,56,55.5,Iceland,140,65,170,375,M,Open,SBD,Single-ply,6
Gerard McNamara #1,1963,60,59.5,Ireland,227.5,127.5,237.5,592.5,M,Open,SBD,Single-ply,1
Lucien DeFaria,1942,60,59.5,France,182.5,120,282.5,585,M,Open,SBD,Single-ply,2
Bernard Vincent,1957,60,59.1,France,217.5,120,240,577.5,M,Open,SBD,Single-ply,3
Günter Icks,1951,60,59.4,Germany,220,120,,,M,Open,SBD,Single-ply,DQ
Jan Wilczyński,1955,67.5,67,Poland,240,147.5,265,652.5,M,Open,SBD,Single-ply,1
David Mannering,1960,67.5,67,UK,242.5,152.5,255,650,M,Open,SBD,Single-ply,2
Tuomo Kesälahti,1952,67.5,67.4,Finland,227.5,150,262.5,640,M,Open,SBD,Single-ply,3
Peter Lux,1961,67.5,66.5,Germany,240,160,227.5,627.5,M,Open,SBD,Single-ply,4
Phillippe Hoareau,1968,67.5,67.1,France,250,122.5,235,607.5,M,Open,SBD,Single-ply,5
Tom Warby,1952,67.5,66.7,Ireland,240,130,230,600,M,Open,SBD,Single-ply,6
Markku Pesonen,1954,75,74.8,Finland,277.5,155,317.5,750,M,Open,SBD,Single-ply,1
Ari-Jukk Mäkitalo,1960,75,74.6,Finland,255,172.5,280,707.5,M,Open,SBD,Single-ply,2
Sigve Valentinsen,1960,75,74.2,Norway,245,145,260,650,M,Open,SBD,Single-ply,3
George Leggett,1929,75,74.6,UK,182.5,105,200,487.5,M,Open,SBD,Single-ply,4
Kári Elíson,1953,75,72.8,Iceland,,,,,M,Open,SBD,Single-ply,DQ
Oivind Björnsen,1970,75,74,Norway,225,165,,,M,Open,SBD,Single-ply,DQ
Skúli Óskarsson,1948,75,74.6,Iceland,,,,,M,Open,SBD,Single-ply,DQ
Jarmo Virtanen,1963,82.5,82.2,Finland,330,185,327.5,842.5,M,Open,SBD,Single-ply,1
Jan Łuka,1949,82.5,81.7,Poland,275,167.5,310,752.5,M,Open,SBD,Single-ply,2
Jari Thätinen,1955,82.5,82.2,Finland,265,187.5,280,732.5,M,Open,SBD,Single-ply,3
Kjell Kaspersen,1968,82.5,81.7,Norway,310,145,275,730,M,Open,SBD,Single-ply,4
Didier Hennequin,1958,82.5,81.5,France,295,155,270,720,M,Open,SBD,Single-ply,5
Piet van Haaren,1963,82.5,81.8,Netherlands,260,155,285,700,M,Open,SBD,Single-ply,6
Tor-Egil Skogly,1964,82.5,81.9,Norway,245,160,265,670,M,Open,SBD,Single-ply,7
Michael Rinkowski,1964,82.5,80.4,Germany,240,170,250,660,M,Open,SBD,Single-ply,8
Michael Pehle,1960,82.5,80.4,Germany,240,175,245,660,M,Open,SBD,Single-ply,9
Floreano Domenici,1952,90,89.6,Italy,320,205,320,845,M,Open,SBD,Single-ply,1
Jón Gunnarsson,1959,90,89.8,Iceland,322.5,180,315,817.5,M,Open,SBD,Single-ply,2
Kimmo Ilmanen,1967,90,89.8,Finland,305,202.5,297.5,805,M,Open,SBD,Single-ply,3
Frank Schramm,1963,90,85.5,Germany,315,190,262.5,767.5,M,Open,SBD,Single-ply,4
Ad Schenkels,1954,90,89.4,Netherlands,292.5,175,297.5,765,M,Open,SBD,Single-ply,5
Anders Hanson,1964,90,89.8,Sweden,282.5,157.5,295,735,M,Open,SBD,Single-ply,6
Gianni Pachioli,1962,90,89.4,Luxembourg,275,165,270,710,M,Open,SBD,Single-ply,7
Rene Keller,1960,90,89.6,Switzerland,255,167.5,270,692.5,M,Open,SBD,Single-ply,8
Thomas Wissler,1964,90,89.6,Switzerland,240,155,270,665,M,Open,SBD,Single-ply,9
Juha Hyttinen,1964,100,99.2,Finland,320,205,330,855,M,Open,SBD,Single-ply,1
Henny Hijmen,1961,100,98.8,Netherlands,315,190,307.5,812.5,M,Open,SBD,Single-ply,2
Ulrich Rambow,1963,100,97.8,Germany,310,185,300,795,M,Open,SBD,Single-ply,3
David Brooks,1952,100,100,UK,285,175,305,765,M,Open,SBD,Single-ply,4
Flosi Jónsson,1954,100,97.4,Iceland,260,150,260,670,M,Open,SBD,Single-ply,5
Leopold Krendl,1957,110,109.5,Austria,365,180,350,895,M,Open,SBD,Single-ply,1
Aare Käppylä,1964,110,109.6,Finland,330,195,340,865,M,Open,SBD,Single-ply,2
Guðni Sigurjónsson,1963,110,104.5,Iceland,300,185,315,800,M,Open,SBD,Single-ply,3
Snäbjörn Aolis,1963,110,108.7,Iceland,290,145,280,715,M,Open,SBD,Single-ply,4
Eberhard Schwanke,1953,110,109,Germany,65,202.5,65,332.5,M,Open,SBD,Single-ply,5
Kyösti Vilmi,1960,125,124.9,Finland,390,240,332.5,962.5,M,Open,SBD,Single-ply,1
John Neighbour,1954,125,118.5,UK,372.5,245,340,957.5,M,Open,SBD,Single-ply,2
Magnús Ver Magnússon,1963,125,119.4,Iceland,340,220,320,880,M,Open,SBD,Single-ply,3
Robert van der Tak,1956,125,120.1,Netherlands,325,225,325,875,M,Open,SBD,Single-ply,4
Anders Eiriksson,1959,125,125,Sweden,330,207.5,317.5,855,M,Open,SBD,Single-ply,5
Ken Lawless,1960,125,122.3,Ireland,310,217.5,325,852.5,M,Open,SBD,Single-ply,6
Jack Johansson,1961,125,124.5,Sweden,322.5,240,270,832.5,M,Open,SBD,Single-ply,7
Berend Veneberg,1963,125,118.1,Netherlands,,,,,M,Open,SBD,Single-ply,DQ
Jean-Pierre Brulois,1957,125+,141.8,France,390,232.5,337.5,960,M,Open,SBD,Single-ply,1
Karl Saliger,1969,125+,125.8,Austria,350,230,320,900,M,Open,SBD,Single-ply,2
Hjalti Árnason,1963,125+,134.4,Iceland,330,210,355,895,M,Open,SBD,Single-ply,3
Yngve Gustafsson,1959,125+,146.3,Sweden,350,237.5,307.5,895,M,Open,SBD,Single-ply,4
Corry van Jansen Jorksveld,1960,125+,127.5,Netherlands,337.5,212.5,330,880,M,Open,SBD,Single-ply,5
Chester Hugo,1953,125+,127.3,Sweden,310,217.5,315,842.5,M,Open,SBD,Single-ply,6
John Kleveland,1957,125+,134.2,Norway,320,210,300,830,M,Open,SBD,Single-ply,7
Kai Lindström,,125+,135.1,Finland,,,,,M,Open,SBD,Single-ply,DQ
